…
<img src="man/figures/README-unnamed-chunk-6-1.png" width="100%" />

### Generate data from DAG

Now that we have a DAG with an underlying data generating process, we
can simulate data:

``` r
g %>% simulate(seed = 123)
#> # A tibble: 10,000 x 7
#>   sim_id      a     c     m     x     y label         
#>    <int>  <dbl> <dbl> <dbl> <dbl> <dbl> <chr>         
#> 1      1  2.37   9.81  20.4  28.2  32.8 simulation set
#> 2      2 -0.167 10.3   19.0  23.2  31.3 simulation set
#> 3      3  0.927  9.46  17.7  23.9  29.1 simulation set
#> # … with 9,997 more rows
```

### Introduce interventions

We can also examine causal effects using interventions, inspired by
Pearl’s
[do-calculus](https://en.wikipedia.org/wiki/Causal_model#Do_calculus).

For example, we can set `a` to 0:

``` r
g %>% manipulate(a = 0) %>% simulate(seed = 123)
#> # A tibble: 10,000 x 7
#>   sim_id     a     c     m     x     y label         
#>    <int> <dbl> <dbl> <dbl> <dbl> <dbl> <chr>         
#> 1      1     0  9.81  18.1  23.5  30.4 simulation set
#> 2      2     0 10.3   19.2  23.5  31.5 simulation set
#> 3      3     0  9.46  16.7  22.0  28.2 simulation set
#> # … with 9,997 more rows
```

And we could compare that with what happens when `a` is set to 1:

``` r
g %>% manipulate(a = 1) %>% simulate(seed = 123)
#> # A tibble: 10,000 x 7
#>   sim_id     a     c     m     x     y label         
#>    <int> <dbl> <dbl> <dbl> <dbl> <dbl> <chr>         
#> 1      1     1  9.81  19.1  25.5  31.4 simulation set
#> 2      2     1 10.3   20.2  25.5  32.5 simulation set
#> 3      3     1  9.46  17.7  24.0  29.2 simulation set
#> # … with 9,997 more rows
```
…
