Create and generate data from DAGs. • raldag
…
Generate data from DAG

Now that we have a DAG with an underlying data generating process, we can simulate data:

g %>% simulate(seed = 123)
#> # A tibble: 10,000 x 7
#>   sim_id      a     c     m     x     y label         
#>    <int>  <dbl> <dbl> <dbl> <dbl> <dbl> <chr>         
#> 1      1  2.37   9.81  130. 1329. 1401. simulation set
#> 2      2 -0.167 10.3   110. 1101. 1203. simulation set
#> 3      3  0.927  9.46  111. 1126. 1208. simulation set
#> # … with 9,997 more rows

Introduce interventions

We can also examine causal effects using interventions, inspired by Pearl’s do-calculus.

For example, we can set a to 0:

g %>% manipulate(a = 0) %>% simulate(seed = 123)
#> # A tibble: 10,000 x 7
#>   sim_id     a     c     m     x     y label         
#>    <int> <dbl> <dbl> <dbl> <dbl> <dbl> <chr>         
#> 1      1     0  9.81  106. 1069. 1164. simulation set
#> 2      2     0 10.3   111. 1119. 1220. simulation set
#> 3      3     0  9.46  102. 1024. 1116. simulation set
#> # … with 9,997 more rows

And we could compare that with what happens when a is set to 1:

g %>% manipulate(a = 1) %>% simulate(seed = 123)
#> # A tibble: 10,000 x 7
#>   sim_id     a     c     m     x     y label         
#>    <int> <dbl> <dbl> <dbl> <dbl> <dbl> <chr>         
#> 1      1     1  9.81  116. 1179. 1264. simulation set
#> 2      2     1 10.3   121. 1229. 1320. simulation set
#> 3      3     1  9.46  112. 1134. 1216. simulation set
#> # … with 9,997 more rows
…
